…
## [1] "And live from Otterbein University, just north of Columbus, Ohio, this is the CNN-New York Times Democratic presidential debate."

dd_uni <- unnest_tokens(
 tbl         = wp,
 output      = word,
 input       = txt,
 token       = "words",  # (default) tokenize strings to words
 to_lower    = TRUE,     # (default) set the resulting column to lowercase
 strip_punct = TRUE      # (default) scrub the punctuation from each word
)

# the same line, tokenized into single words (unigrams)
filter(dd_uni, index == 1)

## # A tibble: 112 x 3
##    speaker index word      
##    <chr>   <int> <chr>     
##  1 Cooper      1 and       
##  2 Cooper      1 live      
##  3 Cooper      1 from      
##  4 Cooper      1 otterbein 
##  5 Cooper      1 university
##  6 Cooper      1 just      
##  7 Cooper      1 north     
##  8 Cooper      1 of        
##  9 Cooper      1 columbus  
## 10 Cooper      1 ohio      
## # … with 102 more rows
…
# here's Cooper's introduction again
# this time we'll drop unigrams that match terms from our list of stop words
dd_uni %>%
  anti_join(smart_stops, by = "word") %>%
  filter(index == 1)

## # A tibble: 65 x 3
##    speaker index word      
##    <chr>   <int> <chr>     
##  1 Cooper      1 live      
##  2 Cooper      1 otterbein 
##  3 Cooper      1 university
##  4 Cooper      1 north     
##  5 Cooper      1 columbus  
##  6 Cooper      1 ohio      
##  7 Cooper      1 cnn       
##  8 Cooper      1 york      
##  9 Cooper      1 times     
## 10 Cooper      1 democratic
## # … with 55 more rows
…
